{
  "replace": false,
  "values": [
    "retroblocks:retro_cobblestone",
    "retroblocks:retro_mossy_cobblestone",
    "retroblocks:retro_bricks",
    "retroblocks:retro_diamond_block",
    "retroblocks:retro_gold_block",
    "retroblocks:retro_iron_block",
    "retroblocks:retro_lapis_block"
  ]
}

